{
    "Title": "Shrek",
    "Year": "2001",
    "Rated": "PG",
    "Released": "18 May 2001",
    "Runtime": "90 min",
    "Genre": "Animation, Adventure, Comedy, Family, Fantasy",
    "Director": "Andrew Adamson, Vicky Jenson",
    "Writer": "William Steig (based upon the book by), Ted Elliott, Terry Rossio, Joe Stillman, Roger S.H. Schulman, Cody Cameron (additional dialogue), Chris Miller (additional dialogue), Conrad Vernon (additional dialogue)",
    "Actors": "Mike Myers, Eddie Murphy, Cameron Diaz, John Lithgow",
    "Plot": "When a green ogre named Shrek discovers his swamp has been 'swamped' with all sorts of fairytale creatures by the scheming Lord Farquaad, Shrek sets out with a very loud donkey by his side to 'persuade' Farquaad to give Shrek his swamp back. Instead, a deal is made. Farquaad, who wants to become the King, sends Shrek to rescue Princess Fiona, who is awaiting her true love in a tower guarded by a fire-breathing dragon. But once they head back with Fiona, it starts to become apparent that not only does Shrek, an ugly ogre, begin to fall in love with the lovely princess, but Fiona is also hiding a huge secret.",
    "Language": "English",
    "Country": "USA",
    "Awards": "Won 1 Oscar. Another 36 wins & 60 nominations.",
    "Poster": "https://m.media-amazon.com/images/M/MV5BOGZhM2FhNTItODAzNi00YjA0LWEyN2UtNjJlYWQzYzU1MDg5L2ltYWdlL2ltYWdlXkEyXkFqcGdeQXVyMTQxNzMzNDI@._V1_SX300.jpg",
    "Ratings": [
        {
            "Source": "Internet Movie Database",
            "Value": "7.9/10"
        },
        {
            "Source": "Rotten Tomatoes",
            "Value": "88%"
        },
        {
            "Source": "Metacritic",
            "Value": "84/100"
        }
    ],
    "Metascore": "84",
    "imdbRating": "7.9",
    "imdbVotes": "549,161",
    "imdbID": "tt0126029",
    "Type": "movie",
    "DVD": "02 Nov 2001",
    "BoxOffice": "$266,982,666",
    "Production": "Dreamworks",
    "Website": "http://www.shrek.com/",
    "Response": "True"
}